1. d
2. b
3. b
4. a
5. d
6. c
7. b
8. a
9. d
10. c
11. b
12. a
13. d
14. b
15. b
16. a
17. b
18. c
19. d
20. c
21. a
22. b
23. a
24. b
25. d
26. d
27. d
28. a
29. b
30. c
31. c
32. c
33. b
34. d
35. a
36. b
37. c
38. c
39. c
40. a
41. a
42. c
43. c
44. a
45. c